{
  "resourceType": "SearchParameter",
  "id": "task-owner",
  "name": "Task owner identifier",
  "status": "active",
  "description": "Allows searching for Task resources that have a logical reference to a (Patient) resource with a specific identifier  ",
  "code": "ownerIdentifier",
  "base": [
    "Task"
  ],
  "type": "token",
  "expression": "Task.owner.identifier",
  "xpathUsage": "normal"
}